{
	"schema_version": "3.0.0", 
	"includes": [], 
	"dependencies": [],
	"packages": [
		{
			"name": "PYDev", 
			"details": "https://bitbucket.org/stuart-fable/sublime-pydev",
			"releases": [{"tags": true, "sublime_text": ">=3000"}]
		}
	]
}
